dplyr verbs
…
---

### Throw our data naively into `gather()`

- We can use function `gather()` from "tidyr" library. 
- `gather()` has arguments "key" and "value" for variables and values, respectively. 

```r
salary_long <- gather(salary)
salary_long
```

```
## # A tibble: 54 x 2
##           key value
##         <chr> <int>
##  1       Year  2011
##  2       Year  2012
##  3       Year  2013
##  4       Year  2014
##  5       Year  2015
##  6       Year  2016
##  7 Physicians  1784
##  8 Physicians  1868
##  9 Physicians  1941
## 10 Physicians  2081
## # ... with 44 more rows
```

---

- We want Year in a separate column and occupation as key and wages as values. 

- We specify here Year as non-value column by using exclusion -Year (all other columns are considered as values).

```r
salary_long <- gather(salary, key = occupation, value = wage, -Year)
salary_long
```

```
## # A tibble: 48 x 3
##     Year occupation  wage
##    <int>      <chr> <int>
##  1  2011 Physicians  1784
##  2  2012 Physicians  1868
##  3  2013 Physicians  1941
##  4  2014 Physicians  2081
##  5  2015 Physicians  2250
##  6  2016 Physicians  2471
##  7  2011   Dentists  1417
##  8  2012   Dentists  1404
##  9  2013   Dentists  1524
## 10  2014   Dentists  1657
## # ... with 38 more rows
```
…
---

- Keep rows in "salary_long" that have occupation not "Physician" **or** wage < 600.

```r
filter(salary_long, occupation != "Physicians" | wage < 600)
```

```
## # A tibble: 42 x 3
##     Year          occupation  wage
##    <int>               <chr> <int>
##  1  2011            Dentists  1417
##  2  2012            Dentists  1404
##  3  2013            Dentists  1524
##  4  2014            Dentists  1657
##  5  2015            Dentists  1614
##  6  2016            Dentists  1793
##  7  2011 Resident physicians  1003
##  8  2012 Resident physicians  1017
##  9  2013 Resident physicians  1375
## 10  2014 Resident physicians  1403
## # ... with 32 more rows
```
…
---

## Remove NAs with `filter()`. 

- We can use `starwars` dataset from "dplyr", where we can find several unhairy characters like C-3PO and R2-D2 with NA in hair_color variable.

```r
starwars
```

```
## # A tibble: 87 x 13
##                  name height  mass    hair_color  skin_color eye_color
##                 <chr>  <int> <dbl>         <chr>       <chr>     <chr>
##  1     Luke Skywalker    172    77         blond        fair      blue
##  2              C-3PO    167    75          <NA>        gold    yellow
##  3              R2-D2     96    32          <NA> white, blue       red
##  4        Darth Vader    202   136          none       white    yellow
##  5        Leia Organa    150    49         brown       light     brown
##  6          Owen Lars    178   120   brown, grey       light      blue
##  7 Beru Whitesun lars    165    75         brown       light      blue
##  8              R5-D4     97    32          <NA>  white, red       red
##  9  Biggs Darklighter    183    84         black       light     brown
## 10     Obi-Wan Kenobi    182    77 auburn, white        fair blue-gray
## # ... with 77 more rows, and 7 more variables: birth_year <dbl>,
## #   gender <chr>, homeworld <chr>, species <chr>, films <list>,
## #   vehicles <list>, starships <list>
```

---

```r
filter(starwars, !is.na(hair_color))
```

```
## # A tibble: 82 x 13
##                  name height  mass    hair_color skin_color eye_color
##                 <chr>  <int> <dbl>         <chr>      <chr>     <chr>
##  1     Luke Skywalker    172    77         blond       fair      blue
##  2        Darth Vader    202   136          none      white    yellow
##  3        Leia Organa    150    49         brown      light     brown
##  4          Owen Lars    178   120   brown, grey      light      blue
##  5 Beru Whitesun lars    165    75         brown      light      blue
##  6  Biggs Darklighter    183    84         black      light     brown
##  7     Obi-Wan Kenobi    182    77 auburn, white       fair blue-gray
##  8   Anakin Skywalker    188    84         blond       fair      blue
##  9     Wilhuff Tarkin    180    NA  auburn, grey       fair      blue
## 10          Chewbacca    228   112         brown    unknown      blue
## # ... with 72 more rows, and 7 more variables: birth_year <dbl>,
## #   gender <chr>, homeworld <chr>, species <chr>, films <list>,
## #   vehicles <list>, starships <list>
```
…
- `group_by()`-le saab anda järjest mitu grupeerivat muutujat. 
Siis ta grupeerib kõigepealt neist esimese järgi, seejärel lõõb saadud grupid omakorda lahku teise argumendi järgi ja nii edasi kuni teie poolt antud argumendid otsa saavad.

---

Here we group "storms" dataset by two categories and calculate average wind speed and standard deviation. 
If you change the order of grouping categories it affects only the column and row order of the result, try it:

```r
storms 
```

```
## # A tibble: 10,010 x 13
##     name  year month   day  hour   lat  long              status category
##    <chr> <dbl> <dbl> <int> <dbl> <dbl> <dbl>               <chr>    <ord>
##  1   Amy  1975     6    27     0  27.5 -79.0 tropical depression       -1
##  2   Amy  1975     6    27     6  28.5 -79.0 tropical depression       -1
##  3   Amy  1975     6    27    12  29.5 -79.0 tropical depression       -1
##  4   Amy  1975     6    27    18  30.5 -79.0 tropical depression       -1
##  5   Amy  1975     6    28     0  31.5 -78.8 tropical depression       -1
##  6   Amy  1975     6    28     6  32.4 -78.7 tropical depression       -1
##  7   Amy  1975     6    28    12  33.3 -78.0 tropical depression       -1
##  8   Amy  1975     6    28    18  34.0 -77.0 tropical depression       -1
##  9   Amy  1975     6    29     0  34.4 -75.8      tropical storm        0
## 10   Amy  1975     6    29     6  34.0 -74.8      tropical storm        0
## # ... with 10,000 more rows, and 4 more variables: wind <int>,
## #   pressure <int>, ts_diameter <dbl>, hu_diameter <dbl>
```
…
<img src="fiveverbs-slides_files/figure-html/unnamed-chunk-29-1.png" style="display: block; margin: auto;" />

---

## flights dataset from "nycflights13" library

```r
flights
```

```
## # A tibble: 336,776 x 19
##     year month   day dep_time sched_dep_time dep_delay arr_time
##    <int> <int> <int>    <int>          <int>     <dbl>    <int>
##  1  2013     1     1      517            515         2      830
##  2  2013     1     1      533            529         4      850
##  3  2013     1     1      542            540         2      923
##  4  2013     1     1      544            545        -1     1004
##  5  2013     1     1      554            600        -6      812
##  6  2013     1     1      554            558        -4      740
##  7  2013     1     1      555            600        -5      913
##  8  2013     1     1      557            600        -3      709
##  9  2013     1     1      557            600        -3      838
## 10  2013     1     1      558            600        -2      753
## # ... with 336,766 more rows, and 12 more variables: sched_arr_time <int>,
## #   arr_delay <dbl>, carrier <chr>, flight <int>, tailnum <chr>,
## #   origin <chr>, dest <chr>, air_time <dbl>, distance <dbl>, hour <dbl>,
## #   minute <dbl>, time_hour <dttm>
```
…
```
## # A tibble: 336,776 x 12
##     year month   day dep_delay arr_delay carrier tailnum distance air_time
##    <int> <int> <int>     <dbl>     <dbl>   <chr>   <chr>    <dbl>    <dbl>
##  1  2013     1     1         2        11      UA  N14228     1400      227
##  2  2013     1     1         4        20      UA  N24211     1416      227
##  3  2013     1     1         2        33      AA  N619AA     1089      160
##  4  2013     1     1        -1       -18      B6  N804JB     1576      183
##  5  2013     1     1        -6       -25      DL  N668DN      762      116
##  6  2013     1     1        -4        12      UA  N39463      719      150
##  7  2013     1     1        -5        19      B6  N516JB     1065      158
##  8  2013     1     1        -3       -14      EV  N829AS      229       53
##  9  2013     1     1        -3        -8      B6  N593JB      944      140
## 10  2013     1     1        -2         8      AA  N3ALAA      733      138
## # ... with 336,766 more rows, and 3 more variables: gain <dbl>,
## #   hours <dbl>, gain_per_hour <dbl>
```
…
